\select@language {french}
\contentsline {chapter}{Introduction}{3}
\contentsline {chapter}{\numberline {1}Structures de données}{3}
\contentsline {chapter}{\numberline {2}Lecture de l'expression}{4}
\contentsline {chapter}{\numberline {3}Construction de l'arbre}{5}
\contentsline {chapter}{\numberline {4}Evaluation de l'expression}{8}
\contentsline {chapter}{\numberline {5}Code source}{9}
\contentsline {section}{\numberline {5.1}main.c}{9}
\contentsline {section}{\numberline {5.2}arbre.h}{10}
\contentsline {section}{\numberline {5.3}arbre.c}{11}
\contentsline {section}{\numberline {5.4}expression.h}{12}
\contentsline {section}{\numberline {5.5}expression.c}{13}
