\relax 
\@writefile{toc}{\contentsline {chapter}{Introduction}{3}}
\@writefile{toc}{\contentsline {chapter}{\numberline {1}Structures de données}{3}}
\@writefile{lof}{\addvspace {10\p@ }}
\@writefile{lot}{\addvspace {10\p@ }}
\@writefile{toc}{\contentsline {chapter}{\numberline {2}Lecture de l'expression}{4}}
\@writefile{lof}{\addvspace {10\p@ }}
\@writefile{lot}{\addvspace {10\p@ }}
\@writefile{toc}{\contentsline {chapter}{\numberline {3}Construction de l'arbre}{5}}
\@writefile{lof}{\addvspace {10\p@ }}
\@writefile{lot}{\addvspace {10\p@ }}
\@writefile{toc}{\contentsline {chapter}{\numberline {4}Evaluation de l'expression}{8}}
\@writefile{lof}{\addvspace {10\p@ }}
\@writefile{lot}{\addvspace {10\p@ }}
\@writefile{toc}{\contentsline {chapter}{\numberline {5}Code source}{9}}
\@writefile{lof}{\addvspace {10\p@ }}
\@writefile{lot}{\addvspace {10\p@ }}
\@writefile{toc}{\contentsline {section}{\numberline {5.1}main.c}{9}}
\@writefile{lol}{\contentsline {lstlisting}{source/main.c}{9}}
\@writefile{toc}{\contentsline {section}{\numberline {5.2}arbre.h}{10}}
\@writefile{lol}{\contentsline {lstlisting}{source/arbre.h}{10}}
\@writefile{toc}{\contentsline {section}{\numberline {5.3}arbre.c}{11}}
\@writefile{lol}{\contentsline {lstlisting}{source/arbre.c}{11}}
\@writefile{toc}{\contentsline {section}{\numberline {5.4}expression.h}{12}}
\@writefile{lol}{\contentsline {lstlisting}{source/expression.h}{12}}
\@writefile{toc}{\contentsline {section}{\numberline {5.5}expression.c}{13}}
\@writefile{lol}{\contentsline {lstlisting}{source/expression.c}{13}}
\@setckpt{rapport}{
\setcounter{page}{17}
\setcounter{equation}{0}
\setcounter{enumi}{0}
\setcounter{enumii}{0}
\setcounter{enumiii}{0}
\setcounter{enumiv}{0}
\setcounter{footnote}{0}
\setcounter{mpfootnote}{0}
\setcounter{part}{0}
\setcounter{chapter}{5}
\setcounter{section}{5}
\setcounter{subsection}{0}
\setcounter{subsubsection}{0}
\setcounter{paragraph}{0}
\setcounter{subparagraph}{0}
\setcounter{figure}{0}
\setcounter{table}{0}
\setcounter{float@type}{8}
\setcounter{lstnumber}{144}
\setcounter{lstlisting}{0}
}
